%!PS-Adobe-3.0 EPSF-3.0
%%Creator: cairo 1.14.2 (http://cairographics.org)
%%CreationDate: Thu May 26 10:58:12 2016
%%Pages: 1
%%DocumentData: Clean7Bit
%%LanguageLevel: 2
%%BoundingBox: 0 0 48 48
%%EndComments
%%BeginProlog
save
50 dict begin
/q { gsave } bind def
/Q { grestore } bind def
/cm { 6 array astore concat } bind def
/w { setlinewidth } bind def
/J { setlinecap } bind def
/j { setlinejoin } bind def
/M { setmiterlimit } bind def
/d { setdash } bind def
/m { moveto } bind def
/l { lineto } bind def
/c { curveto } bind def
/h { closepath } bind def
/re { exch dup neg 3 1 roll 5 3 roll moveto 0 rlineto
      0 exch rlineto 0 rlineto closepath } bind def
/S { stroke } bind def
/f { fill } bind def
/f* { eofill } bind def
/n { newpath } bind def
/W { clip } bind def
/W* { eoclip } bind def
/BT { } bind def
/ET { } bind def
/pdfmark where { pop globaldict /?pdfmark /exec load put }
    { globaldict begin /?pdfmark /pop load def /pdfmark
    /cleartomark load def end } ifelse
/BDC { mark 3 1 roll /BDC pdfmark } bind def
/EMC { mark /EMC pdfmark } bind def
/cairo_store_point { /cairo_point_y exch def /cairo_point_x exch def } def
/Tj { show currentpoint cairo_store_point } bind def
/TJ {
  {
    dup
    type /stringtype eq
    { show } { -0.001 mul 0 cairo_font_matrix dtransform rmoveto } ifelse
  } forall
  currentpoint cairo_store_point
} bind def
/cairo_selectfont { cairo_font_matrix aload pop pop pop 0 0 6 array astore
    cairo_font exch selectfont cairo_point_x cairo_point_y moveto } bind def
/Tf { pop /cairo_font exch def /cairo_font_matrix where
      { pop cairo_selectfont } if } bind def
/Td { matrix translate cairo_font_matrix matrix concatmatrix dup
      /cairo_font_matrix exch def dup 4 get exch 5 get cairo_store_point
      /cairo_font where { pop cairo_selectfont } if } bind def
/Tm { 2 copy 8 2 roll 6 array astore /cairo_font_matrix exch def
      cairo_store_point /cairo_font where { pop cairo_selectfont } if } bind def
/g { setgray } bind def
/rg { setrgbcolor } bind def
/d1 { setcachedevice } bind def
%%EndProlog
%%BeginSetup
%%EndSetup
%%Page: 1 1
%%BeginPageSetup
%%PageBoundingBox: 0 0 48 48
%%EndPageSetup
q 0 0 48 48 rectclip q
0 g
36 32.879 m 36 40 l 38.879 40 l 39.922 40 40.801 41.039 40.801 42.398 c
 40.801 47.199 l 40.801 47.68 40.48 48 40 48 c 22.398 48 l 21.922 48 21.602
 47.68 21.602 47.199 c 21.602 42.398 l 21.602 41.039 22.48 40 23.52 40 c
 26.398 40 l 26.398 32.879 l 19.281 30.719 14.398 24.238 14.398 16.801 c
 14.398 7.52 21.922 0 31.199 0 c 40.48 0 48 7.52 48 16.801 c 48 24.238 43.121
 30.801 36 32.879 c h
23.199 42.398 m 23.199 43.199 l 34.398 43.199 l 34.398 44.801 l 23.199 
44.801 l 23.199 46.398 l 39.199 46.398 l 39.199 42.398 l 39.199 41.922 38.961
 41.602 38.879 41.602 c 23.52 41.602 l 23.441 41.602 23.199 41.922 23.199
 42.398 c h
31.199 1.602 m 22.801 1.602 16 8.398 16 16.801 c 16 23.68 20.641 29.762
 27.359 31.441 c 27.762 31.52 28 31.84 28 32.238 c 28 40 l 34.398 40 l 34.398
 32.238 l 34.398 31.84 34.719 31.52 35.039 31.441 c 41.68 29.762 46.398 
23.68 46.398 16.801 c 46.398 8.398 39.602 1.602 31.199 1.602 c h
31.199 1.602 m f
43.199 17.602 m 19.199 17.602 l 18.719 17.602 18.398 17.281 18.398 16.801
 c 18.398 9.762 24.16 4 31.199 4 c 38.238 4 44 9.762 44 16.801 c 44 17.281
 43.68 17.602 43.199 17.602 c h
31.199 5.602 m 25.281 5.602 20.398 10.16 20 16 c 42.398 16 l 41.922 10.16
 37.121 5.602 31.199 5.602 c h
31.199 5.602 m f
3.199 2.398 m 3.199 20.801 l 12.801 20.801 l 12.801 22.398 l 1.602 22.398
 l 1.602 24 l 14.398 24 l 14.398 25.602 l 0.801 25.602 l 0.32 25.602 0 25.281
 0 24.801 c 0 21.602 l 0 21.121 0.32 20.801 0.801 20.801 c 1.602 20.801 
l 1.602 2.398 l 1.602 1.039 2.641 0 4 0 c 20 0 l 20 1.602 l 4 1.602 l 3.52
 1.602 3.199 1.922 3.199 2.398 c h
3.199 2.398 m f
9.602 14.398 m 9.602 16 l 7.199 16 l 7.199 18.398 l 5.602 18.398 l 5.602
 4 l 7.199 4 l 7.199 6.398 l 9.602 6.398 l 9.602 8 l 7.199 8 l 7.199 10.398
 l 9.602 10.398 l 9.602 12 l 7.199 12 l 7.199 14.398 l h
9.602 14.398 m f
24 14.398 1.602 -1.598 re f
24.801 23.199 1.598 -1.598 re f
31.199 22.398 1.602 -1.598 re f
28.801 28 1.598 -1.602 re f
2.398 29.602 1.602 -1.602 re f
12 29.602 1.602 -1.602 re f
7.199 33.602 1.602 -1.602 re f
11.199 38.398 1.602 -1.598 re f
3.199 40 1.602 -1.602 re f
35.199 24.801 1.602 -1.602 re f
40 20.801 1.602 -1.602 re f
20 20.801 1.602 -1.602 re f
26.398 11.199 1.602 -1.598 re f
30.398 13.602 1.602 -1.602 re f
30.398 8.801 1.602 -1.602 re f
34.398 11.199 1.602 -1.598 re f
36.801 14.398 1.598 -1.598 re f
Q Q
showpage
%%Trailer
end restore
%%EOF
