<svg xmlns="http://www.w3.org/2000/svg" width="26" height="20" viewBox="0 0 26 20">
  <metadata><?xpacket begin="﻿" id="W5M0MpCehiHzreSzNTczkc9d"?>
<x:xmpmeta xmlns:x="adobe:ns:meta/" x:xmptk="Adobe XMP Core 5.6-c138 79.159824, 2016/09/14-01:09:01        ">
   <rdf:RDF xmlns:rdf="http://www.w3.org/1999/02/22-rdf-syntax-ns#">
      <rdf:Description rdf:about=""/>
   </rdf:RDF>
</x:xmpmeta>
                                                                                                    
                                                                                                    
                                                                                                    
                                                                                                    
                                                                                                    
                                                                                                    
                                                                                                    
                                                                                                    
                                                                                                    
                                                                                                    
                                                                                                    
                                                                                                    
                                                                                                    
                                                                                                    
                                                                                                    
                                                                                                    
                                                                                                    
                                                                                                    
                                                                                                    
                                                                                                    
                           
<?xpacket end="w"?></metadata>
<defs>
    <style>
      .cls-1 {
        fill: #999;
        fill-rule: evenodd;
      }
    </style>
  </defs>
  <path id="Arrow_Right" data-name="Arrow Right" class="cls-1" d="M43,53.875H67a1,1,0,0,1,1,1v0.219a1,1,0,0,1-1,1H43a1,1,0,0,1-1-1V54.875A1,1,0,0,1,43,53.875Zm8.348-8.562-8.989,8.821a1.119,1.119,0,0,0,0,1.6,1.173,1.173,0,0,0,1.634,0l8.989-8.821a1.118,1.118,0,0,0,0-1.6A1.169,1.169,0,0,0,51.348,45.313Zm0,19.332-8.989-8.82a1.118,1.118,0,0,1,0-1.6,1.168,1.168,0,0,1,1.634,0l8.989,8.82a1.118,1.118,0,0,1,0,1.6A1.169,1.169,0,0,1,51.348,64.645Z" transform="translate(-42 -45)"/>
</svg>
