<?xml version="1.0" encoding="UTF-8"?>
<!DOCTYPE svg PUBLIC "-//W3C//DTD SVG 1.1//EN" "http://www.w3.org/Graphics/SVG/1.1/DTD/svg11.dtd">
<!-- Creator: CorelDRAW 2017 -->
<svg xmlns="http://www.w3.org/2000/svg" xml:space="preserve" width="565mm" height="180mm" version="1.1" style="shape-rendering:geometricPrecision; text-rendering:geometricPrecision; image-rendering:optimizeQuality; fill-rule:evenodd; clip-rule:evenodd"
viewBox="0 0 56500 18000"
 xmlns:xlink="http://www.w3.org/1999/xlink">
 <defs>
  <style type="text/css">
   <![CDATA[
    .fil0 {fill:#537FBA}
    .fil2 {fill:#FC7958}
    .fil3 {fill:#FFF7F5}
    .fil1 {fill:white}
   ]]>
  </style>
 </defs>
 <g id="Слой_x0020_1">
  <metadata id="CorelCorpID_0Corel-Layer"/>
  <polygon class="fil0" points="168.89,180.56 17807.78,180.56 17807.78,17819.44 168.89,17819.44 "/>
  <path class="fil1" d="M9023.61 17219.82l4656.77 0 -0.05 -8219.81 -0.05 -8219.73 -9383.94 0 0.05 4409.82 4691.84 0c0.05,4010.28 35.38,8020.32 35.38,12029.72z"/>
  <polygon class="fil2" points="168.89,8999.99 8988.28,8999.99 8988.23,5190.1 4296.39,5190.1 4296.34,780.28 4296.38,180.56 168.89,180.56 "/>
  <polygon class="fil0" points="4296.34,780.28 13680.28,780.28 13680.33,9000.01 17807.78,9000.01 17807.78,180.56 4296.38,180.56 "/>
  <path class="fil2" d="M8988.34 17219.83l0 0c-0.08,204.4 -0.12,399.2 -0.12,599.63l8819.56 -0.02 0 -8819.43 -4127.45 0 0.05 8219.81 -4692.04 0.01z"/>
  <path class="fil2" d="M22817.22 11822.22l1270 0 0 3033.89 -1622.78 0c10.43,-125.28 208.06,-757.86 245.92,-1447.42 28.41,-517.67 106.86,-1057.87 106.86,-1586.47zm-1975.55 3069.17l-599.73 0 0 2504.72 1587.5 0 0 -1199.45 2963.34 0 0 1199.45 1552.22 0 0 -2504.72 -670.28 0 0 -4409.72 -4339.16 0c0,241.72 -37.09,323.88 -36.11,563.62l-33.28 1166.15c0.46,517.84 -125.36,1698.34 -267.81,2201.64 -55.98,197.82 -116.42,305.46 -156.69,478.31z"/>
  <path class="fil0" d="M46100.55 3567.22c0,-851.51 700.48,-1552.22 1411.12,-1552.22l282.22 0c714.22,0 1411.11,673.54 1411.11,1587.5 0,750.39 -678.41,1481.67 -1411.11,1481.67 -559.19,0 -838.52,-37.19 -1261.98,-466.63 -226.5,-229.7 -431.36,-604.7 -431.36,-1050.32zm-1516.94 -211.66c0,1003.09 197.03,1582.62 908.24,2302.03 1149.06,1162.3 3151.65,1176.46 4321.72,-0.13 265.37,-266.85 423.81,-448.64 602.8,-808.31 409.64,-823.11 423.63,-1772.65 0.62,-2599.75 -454.52,-888.7 -1502.1,-1680.78 -2587.82,-1680.78 -967.43,0 -1728.64,257.49 -2319.83,855.17 -475.93,481.17 -925.73,1197.13 -925.73,1931.77z"/>
  <path class="fil2" d="M41514.44 13374.44c0,-851.51 700.48,-1552.22 1411.11,-1552.22l282.23 0c714.22,0 1411.11,673.54 1411.11,1587.5 0,750.38 -678.41,1481.67 -1411.11,1481.67 -549.87,0 -844.63,-41.67 -1261.95,-466.66 -232.34,-236.61 -431.39,-593.89 -431.39,-1050.29zm-1516.94 -211.66c0,645.2 2.93,888.46 293.85,1470.04 459.81,919.22 1505.36,1704.95 2634.2,1704.95 958.35,0 1690.92,-256.67 2284.32,-855.41 924.89,-933.22 1216.83,-2209.04 644.53,-3378.71 -464.38,-949.1 -1552.66,-1727.82 -2611.35,-1727.82 -967.42,0 -1728.63,257.49 -2319.82,855.18 -475.93,481.17 -925.73,1197.13 -925.73,1931.77z"/>
  <path class="fil0" d="M41408.61 5119.45l-917.22 0 0 -987.78c647.95,0 1615.79,-152.74 1615.92,493.89 0.07,380.05 -354.05,493.89 -698.7,493.89zm-211.67 -2293.06l-705.55 0 0 -811.39c693.19,0 1270,-113.73 1270,458.61 0,261.36 -300.46,352.78 -564.45,352.78zm-2257.77 3598.33l2610.55 0c996.63,0 1975.56,-524.9 1975.56,-1587.5l0 -246.94c0,-534.34 -450.16,-1098.85 -881.95,-1199.44 71.5,-97.59 107.24,-71.06 198.19,-189.87 777.34,-1015.44 155.78,-2491.24 -1397.63,-2491.24l-2504.72 0 0 5714.99z"/>
  <polygon class="fil0" points="20241.94,6424.72 21794.17,6424.72 21794.17,2015 23734.44,2015 23734.44,6424.72 25286.67,6424.72 25286.67,709.73 20241.94,709.73 "/>
  <path class="fil2" d="M33859.17 14961.94c-176.32,0 -305.87,-78.95 -423.34,-141.11 -71.14,148.26 -374.4,1000.08 -388.05,1164.17 710.98,376.2 1764.04,568 2308.54,-231.47 297.96,-437.48 357.77,-933.7 371.52,-1462.91 4.53,-174.37 32.27,-175.83 37.48,-350.58 3.46,-116.03 -3.97,-238.73 -2.56,-355.34 2.2,-181.97 28.38,-194.25 36.86,-351.2l35.1 -1446.56 1234.72 0 0 4409.72 1552.23 0 0 -5714.99 -4198.06 0c0,208.25 -36.77,318.51 -35.51,564.21l-68.47 1836.53c-33.5,404.79 -17.44,831.97 -36.87,1233.13 -14.96,308.94 -124.82,846.4 -423.59,846.4z"/>
  <polygon class="fil0" points="52097.78,6424.72 56331.11,6424.72 56331.11,5119.45 53650,5119.45 53650,4237.5 55978.33,4237.5 55978.33,2896.95 53650,2896.95 53650,2015 56225.28,2015 56225.28,674.45 52097.78,674.45 "/>
  <polygon class="fil2" points="27720.83,16196.66 31989.44,16196.66 31989.44,14856.11 29273.06,14856.11 29273.06,14009.44 31601.39,14009.44 31601.39,12668.89 29273.06,12668.89 29273.06,11786.94 31848.33,11786.94 31848.33,10481.67 27720.83,10481.67 "/>
  <polygon class="fil0" points="26980,6424.72 31248.61,6424.72 31248.61,5119.45 28532.22,5119.45 28532.22,4237.5 30860.56,4237.5 30860.56,2896.95 28532.22,2896.95 28532.22,2015 31107.5,2015 31107.5,709.73 26980,709.73 "/>
  <path class="fil0" d="M35058.61 3461.39l-635 0 0 -1446.39 635 0c540.72,0 980.45,190.27 979.28,705.49 -1.24,545.04 -410.98,740.9 -979.28,740.9zm-2187.22 2963.33l1552.22 0 0 -1658.05c1091.99,0 1545.23,106.22 2384.24,-543.82 144.37,-111.86 354.82,-394.9 436.46,-551.31 670.49,-1284.58 -224.72,-2961.81 -1868.2,-2961.81l-2504.72 0 0 5714.99z"/>
  <path class="fil3" d="M8988.34 17219.83l35.27 -0.01c0,-518.01 39.88,-4981.09 -35.56,-5062.55l0.29 5062.56z"/>
 </g>
</svg>
